<?xml version="1.0" encoding="UTF-8" standalone="no"?>
<svg width="8px" height="14px" viewBox="0 0 8 14" version="1.1" xmlns="http://www.w3.org/2000/svg" xmlns:xlink="http://www.w3.org/1999/xlink">
    <defs></defs>
    <g id="Page-1" stroke="none" stroke-width="1" fill="none" fill-rule="evenodd" stroke-linecap="round" stroke-linejoin="round">
        <g id="+UI2.-Главная" transform="translate(-385.000000, -6200.000000)" stroke="#E35F46" stroke-width="2">
            <g id="Group-11" transform="translate(0.000000, 579.000000)">
                <g id="STATISTICS" transform="translate(0.000000, 5404.000000)">
                    <g id="Bitmap">
                        <g id="Group-5" transform="translate(210.000000, 160.000000)">
                            <polyline id="Path-3-Copy" transform="translate(178.935389, 63.699575) scale(-1, 1) translate(-178.935389, -63.699575) " points="176 69.3991501 181.870778 63.5283723 176.342406 58"></polyline>
                        </g>
                    </g>
                </g>
            </g>
        </g>
    </g>
</svg>