<?xml version="1.0" encoding="UTF-8" standalone="no"?>
<svg width="92px" height="36px" viewBox="0 0 92 36" version="1.1" xmlns="http://www.w3.org/2000/svg" xmlns:xlink="http://www.w3.org/1999/xlink">
    <!-- Generator: Sketch 42 (36781) - http://www.bohemiancoding.com/sketch -->
    <title>arrows</title>
    <desc>Created with Sketch.</desc>
    <defs>
        <rect id="path-1" x="0" y="0" width="36" height="36" rx="4"></rect>
        <mask id="mask-2" maskContentUnits="userSpaceOnUse" maskUnits="objectBoundingBox" x="0" y="0" width="36" height="36" fill="white">
            <use xlink:href="#path-1"></use>
        </mask>
        <rect id="path-3" x="0" y="0" width="36" height="36" rx="4"></rect>
        <mask id="mask-4" maskContentUnits="userSpaceOnUse" maskUnits="objectBoundingBox" x="0" y="0" width="36" height="36" fill="white">
            <use xlink:href="#path-3"></use>
        </mask>
    </defs>
    <g id="Page-1" stroke="none" stroke-width="1" fill="none" fill-rule="evenodd">
        <g id="+UI2.-Главная" transform="translate(-1138.000000, -3614.000000)" stroke-width="2">
            <g id="Group-11" transform="translate(0.000000, 579.000000)">
                <g id="Recommended" transform="translate(210.000000, 3034.000000)">
                    <g id="Lenta" transform="translate(1.000000, 0.000000)">
                        <g id="arrows" transform="translate(927.000000, 1.000000)">
                            <g id="Group-36">
                                <use id="Rectangle-11" stroke="#D8D8D8" mask="url(#mask-2)" fill="#FFFFFF" transform="translate(18.000000, 18.000000) scale(-1, 1) translate(-18.000000, -18.000000) " xlink:href="#path-1"></use>
                                <polyline id="Path-3-Copy" stroke="#3C3D3E" stroke-linecap="round" stroke-linejoin="round" transform="translate(17.935389, 17.699575) rotate(-180.000000) translate(-17.935389, -17.699575) " points="15 23.3991501 20.8707778 17.5283723 15.3424055 12"></polyline>
                            </g>
                            <g id="Group-37" transform="translate(56.000000, 0.000000)">
                                <use id="Rectangle-11-Copy" stroke="#D8D8D8" mask="url(#mask-4)" fill="#FFFFFF" xlink:href="#path-3"></use>
                                <polyline id="Path-3-Copy-2" stroke="#3C3D3E" stroke-linecap="round" stroke-linejoin="round" transform="translate(17.935389, 17.699575) scale(-1, 1) rotate(-180.000000) translate(-17.935389, -17.699575) " points="15 23.3991501 20.8707778 17.5283723 15.3424055 12"></polyline>
                            </g>
                        </g>
                    </g>
                </g>
            </g>
        </g>
    </g>
</svg>