<?xml version="1.0" encoding="UTF-8" standalone="no"?>
<svg width="131px" height="34px" viewBox="0 0 131 34" version="1.1" xmlns="http://www.w3.org/2000/svg" xmlns:xlink="http://www.w3.org/1999/xlink">
    <!-- Generator: Sketch 42 (36781) - http://www.bohemiancoding.com/sketch -->
    <title>logo</title>
    <desc>Created with Sketch.</desc>
    <defs></defs>
    <g id="Page-1" stroke="none" stroke-width="1" fill="none" fill-rule="evenodd">
        <g id="UI7.1-Категории---результаты-поиска" transform="translate(-211.000000, -1688.000000)" fill-rule="nonzero">
            <g id="FOOTER" transform="translate(0.000000, 1628.000000)">
                <g id="logo" transform="translate(211.000000, 60.000000)">
                    <g id="Page-1">
                        <g id="rent-1">
                            <path d="M7.61058719,7.41618505 L0.83541637,14.1913559 C0.0871779359,14.9395943 0.0871779359,16.1526263 0.83541637,16.901331 C1.5836548,17.6495694 2.79715302,17.6495694 3.54539146,16.901331 L3.55424911,16.8924733 L10.3117046,10.1345516 L10.3205623,10.1261601 C11.0688007,9.37792171 11.0688007,8.16442349 10.3205623,7.41618505 C9.57232384,6.66794662 8.35882562,6.66794662 7.61058719,7.41618505" id="Fill-1" fill="#46CA78"></path>
                            <path d="M0.843807829,26.2741246 L7.61897865,33.0492954 C8.36721708,33.7975338 9.5807153,33.7975338 10.3289537,33.0492954 C11.0771922,32.3010569 11.0771922,31.0875587 10.3289537,30.3388541 L10.3200961,30.3304626 L3.56264057,23.5730071 L3.55378292,23.5641495 C2.80601068,22.815911 1.59251246,22.815911 0.843807829,23.5641495 C0.095569395,24.3123879 0.095569395,25.5258861 0.843807829,26.2741246" id="Fill-2" fill="#E55E40"></path>
                            <path d="M3.55378292,26.2741246 L10.3289537,19.4989537 C11.0771922,18.7507153 11.0771922,17.5372171 10.3289537,16.7889786 C9.5807153,16.0407402 8.36721708,16.0407402 7.61897865,16.7889786 L7.61058719,16.7978363 L0.85266548,23.5552918 L0.843807829,23.5641495 C0.095569395,24.3123879 0.095569395,25.5258861 0.843807829,26.2741246 C1.59251246,27.022363 2.80601068,27.022363 3.55378292,26.2741246" id="Fill-3" fill="#E55E40"></path>
                            <path d="M10.3205623,7.41618505 L3.54539146,0.641014235 C2.79715302,-0.107224199 1.5836548,-0.107224199 0.83541637,0.641014235 C0.0871779359,1.38971886 0.0871779359,2.60275089 0.83541637,3.35145552 L0.844274021,3.35984698 L7.60172954,10.1173025 L7.61058719,10.1261601 C8.35882562,10.8743986 9.57232384,10.8743986 10.3205623,10.1261601 C11.0688007,9.37792171 11.0688007,8.16442349 10.3205623,7.41618505" id="Fill-4" fill="#46CA78"></path>
                            <polyline id="Fill-5" fill="#40A164" points="7.61058719 12.8361352 8.96534164 11.4813808 6.25536655 8.7709395 7.61058719 12.8361352"></polyline>
                            <polyline id="Fill-6" fill="#BD5035" points="3.55378292 28.9840996 2.19949466 27.6293452 4.90900356 24.9193701 3.55378292 28.9840996"></polyline>
                            <path d="M50.3012028,24.7729858 C52.4587402,24.7729858 54.4120854,23.8993416 55.8269786,22.4863132 L55.8307082,22.4825836 C56.094573,22.2187189 56.2577402,21.8541566 56.2577402,21.4513665 C56.2577402,20.6457865 55.6050712,19.9926512 54.7994911,19.9926512 C54.3967011,19.9926512 54.0321388,20.1558185 53.768274,20.4196833 L53.7668754,20.4210819 C52.8797117,21.3073132 51.6545587,21.8560214 50.3012028,21.8560214 C48.101242,21.8560214 46.2397367,20.4066299 45.6187687,18.4108612 L56.7150747,18.4108612 C57.4856904,18.4108612 58.115516,17.7866299 58.1225089,17.0164804 C58.1602705,12.7815907 54.7444804,9.13363701 50.3012028,9.13363701 C45.9823986,9.13363701 42.4817616,12.6347402 42.4817616,16.9530783 C42.4817616,21.2718826 45.9823986,24.7729858 50.3012028,24.7729858 Z M45.6187687,15.4957616 C46.2397367,13.4995267 48.101242,12.0506014 50.3012028,12.0506014 C52.5016299,12.0506014 54.3631352,13.4995267 54.983637,15.4957616 L45.6187687,15.4957616 L45.6187687,15.4957616 Z" id="Fill-7" fill="#5E6269"></path>
                            <path d="M80.9249004,10.5918861 L80.9249004,10.8613452 C82.265669,9.78071174 83.9705338,9.13363701 85.8273772,9.13363701 C86.6329573,9.13363701 87.2860925,9.78630605 87.2860925,10.5918861 C87.2860925,11.3974662 86.6329573,12.0506014 85.8273772,12.0506014 C83.1211317,12.0506014 80.9267651,14.2435694 80.9249004,16.9493488 L80.9249004,23.6639146 C80.9249004,24.4694947 80.2717651,25.1226299 79.4661851,25.1226299 C78.6601388,25.1226299 78.0074698,24.4694947 78.0074698,23.6639146 L78.0074698,10.5918861 C78.0074698,9.78630605 78.6601388,9.13363701 79.4661851,9.13363701 C80.2717651,9.13363701 80.9249004,9.78630605 80.9249004,10.5918861" id="Fill-8" fill="#5E6269"></path>
                            <path d="M108.491776,10.5918861 L108.491776,10.8580819 C109.832544,9.77931317 111.535544,9.13363701 113.390057,9.13363701 C117.708861,9.13363701 121.209964,12.6347402 121.209964,16.9530783 L121.209964,23.6639146 C121.209964,24.4694947 120.556829,25.1226299 119.751249,25.1226299 C118.945669,25.1226299 118.292534,24.4694947 118.292534,23.6639146 L118.292534,17.2253345 C118.292534,17.0160142 118.295331,16.8136868 118.280413,16.6039004 C118.101395,14.0594235 115.980221,12.0506014 113.390057,12.0506014 C110.751409,12.0506014 108.599466,14.1354128 108.491776,16.7479537 L108.491776,23.6639146 C108.491776,24.4694947 107.838641,25.1226299 107.033527,25.1226299 C106.227947,25.1226299 105.574811,24.4694947 105.574811,23.6639146 L105.574811,10.5918861 C105.574811,9.78630605 106.227947,9.13363701 107.033527,9.13363701 C107.838641,9.13363701 108.491776,9.78630605 108.491776,10.5918861" id="Fill-9" fill="#5E6269"></path>
                            <path d="M127.018719,7.67492171 L127.018719,9.1280427 L128.477434,9.1280427 C129.283014,9.1280427 129.935683,9.78117794 129.935683,10.586758 C129.935683,11.4207758 129.239658,12.0818363 128.407505,12.0431423 L127.018719,12.0431423 L127.018719,19.4574626 C127.018719,19.7576904 126.998673,20.1059359 127.027577,20.409427 C127.123146,21.4168683 127.971616,22.2051993 129.004231,22.2051993 L129.31658,22.2051993 C130.12216,22.2051993 130.774829,22.8583345 130.774829,23.6639146 C130.774829,24.4694947 130.12216,25.1226299 129.31658,25.1226299 L129.004231,25.1226299 C126.366982,25.1226299 124.215505,23.0392171 124.10595,20.4290071 C124.091498,20.0807616 124.101288,19.722726 124.101288,19.3749466 L124.101288,12.0431423 C123.878448,12.0431423 123.655142,12.0450071 123.431836,12.0450071 C122.626256,12.0450071 121.973587,11.3923381 121.973587,10.586758 C121.973587,9.78117794 122.626256,9.1280427 123.431836,9.1280427 L124.101288,9.1280427 L124.101288,7.67492171 C124.101288,6.86934164 124.754423,6.21620641 125.560004,6.21620641 C126.36605,6.21620641 127.018719,6.86934164 127.018719,7.67492171" id="Fill-10" fill="#5E6269"></path>
                            <path d="M95.4621708,24.7729858 C97.6197082,24.7729858 99.5730534,23.8993416 100.987947,22.4863132 L100.991676,22.4825836 C101.255541,22.2187189 101.419174,21.8541566 101.419174,21.4513665 C101.419174,20.6457865 100.766039,19.9926512 99.9604591,19.9926512 C99.557669,19.9926512 99.1926406,20.1558185 98.9287758,20.4196833 L98.9278434,20.4210819 C98.0406797,21.3073132 96.8155267,21.8560214 95.4621708,21.8560214 C93.26221,21.8560214 91.4002384,20.4066299 90.7802028,18.4108612 L101.876043,18.4108612 C102.646658,18.4108612 103.276484,17.7866299 103.283011,17.0164804 C103.321238,12.7815907 99.9059146,9.13363701 95.4621708,9.13363701 C91.1438327,9.13363701 87.6427295,12.6347402 87.6427295,16.9530783 C87.6427295,21.2718826 91.1438327,24.7729858 95.4621708,24.7729858 Z M90.7802028,15.4957616 C91.4002384,13.4995267 93.26221,12.0506014 95.4621708,12.0506014 C97.6621317,12.0506014 99.5241032,13.4995267 100.144605,15.4957616 L90.7802028,15.4957616 L90.7802028,15.4957616 Z" id="Fill-11" fill="#5E6269"></path>
                            <path d="M67.561968,24.7729858 C63.2436299,24.7729858 59.7425267,21.2718826 59.7425267,16.9530783 C59.7425267,12.6347402 63.2436299,9.13363701 67.561968,9.13363701 C71.8807722,9.13363701 75.3823416,12.6347402 75.3823416,16.9530783 L75.3823416,23.354363 C75.3823416,24.1599431 74.7292064,24.8130783 73.9231601,24.8130783 C73.1175801,24.8130783 72.464911,24.1599431 72.464911,23.354363 L72.464911,23.0448114 C71.1236762,24.1254448 69.4188114,24.7729858 67.561968,24.7729858 Z M72.464911,16.9530783 C72.464911,14.2454342 70.2700783,12.0506014 67.561968,12.0506014 C64.85479,12.0506014 62.6594911,14.2454342 62.6594911,16.9530783 C62.6594911,19.6607224 64.85479,21.8560214 67.561968,21.8560214 C70.2686797,21.8560214 72.4630463,19.6630534 72.464911,16.9568078 L72.464911,16.9530783 Z" id="Fill-12" fill="#5E6269"></path>
                            <path d="M24.5687936,10.4790676 L27.3640819,18.7702954 L30.154242,10.4939858 L30.1547082,10.4916548 L30.1589039,10.4790676 L30.1593701,10.477669 L30.1705587,10.4469004 L30.1733559,10.4389751 L30.1826797,10.4142669 L30.1873416,10.4030783 L30.1948007,10.3834982 L30.202726,10.3653167 L30.2069217,10.3555267 C30.2791815,10.1923594 30.3780142,10.0478399 30.4968932,9.9261637 L30.4973594,9.9261637 L30.5220676,9.90145552 L30.5225338,9.90098932 C30.6451423,9.78117794 30.7905943,9.68141281 30.9551601,9.60961922 L30.9584235,9.60822064 L30.9831317,9.59749822 L30.9961851,9.59237011 L31.0111032,9.58630961 L31.0353452,9.57745196 L31.0432705,9.57418861 L31.0740391,9.56346619 L31.0754377,9.563 L31.0759039,9.56253381 C31.16821,9.53129893 31.2642456,9.5093879 31.3621459,9.4972669 L31.3630783,9.4972669 C31.3868541,9.49446975 31.4110961,9.49213879 31.4348719,9.49027402 L31.4395338,9.48980783 C31.44979,9.48934164 31.4605125,9.48840925 31.4707687,9.48794306 L31.476363,9.48747687 L31.5071317,9.48654448 L31.5392989,9.48607829 L31.5430285,9.48607829 L31.5751957,9.48654448 L31.6054982,9.48747687 L31.6120249,9.48794306 L31.6427936,9.48980783 L31.6474555,9.49027402 C31.6716975,9.4916726 31.6954733,9.49446975 31.7192491,9.4972669 L31.7201815,9.4972669 C31.8180819,9.5093879 31.9141174,9.53176512 32.0064235,9.56253381 L32.0073559,9.563 L32.0082883,9.56346619 L32.0390569,9.57418861 L32.0474484,9.57745196 L32.0712242,9.58630961 L32.0861423,9.59237011 L32.0991957,9.59749822 L32.1239039,9.60822064 L32.1276335,9.60961922 C32.2917331,9.68141281 32.4371851,9.78117794 32.5602598,9.90098932 L32.5602598,9.90145552 L32.5854342,9.9261637 C32.7043132,10.0478399 32.8031459,10.1923594 32.8754057,10.3555267 L32.8796014,10.3653167 L32.8875267,10.3834982 L32.8949858,10.4030783 L32.8996477,10.4142669 L32.9089715,10.4389751 L32.9122349,10.4469004 L32.9229573,10.477669 L32.9234235,10.4790676 L32.9276192,10.4916548 L32.9280854,10.4939858 L35.716847,18.7660996 L38.5102705,10.4790676 C38.7676085,9.71591103 39.5950996,9.30566192 40.3587224,9.563 C41.121879,9.82033808 41.5321281,10.6478292 41.27479,11.4109858 L37.1028363,23.7860569 L37.1009715,23.7921174 L37.0991068,23.7981779 C37.0953772,23.8089004 37.0916477,23.8191566 37.0879181,23.829879 L37.0846548,23.8382705 L37.075331,23.8634448 L37.0711352,23.8732349 L37.0622776,23.8946797 L37.0557509,23.9105302 L37.0501566,23.9231174 C36.978363,24.0853523 36.8795302,24.2294057 36.7611174,24.3510819 L36.7606512,24.3510819 C36.752726,24.3594733 36.7443345,24.3678648 36.7364093,24.37579 L36.7354769,24.3762562 C36.6133345,24.4960676 36.4678826,24.5953665 36.3033167,24.6676263 L36.3000534,24.6690249 L36.2753452,24.6797473 L36.2618256,24.6848754 L36.2469075,24.6909359 L36.2231317,24.6997936 L36.2152064,24.7030569 L36.1867687,24.712847 L36.182573,24.7142456 L36.1807082,24.7147117 L36.1485409,24.7254342 L36.1466762,24.7259004 C36.1350214,24.7296299 36.1233665,24.7328932 36.1117117,24.7361566 L36.1107794,24.7361566 C36.0408505,24.7562028 35.9690569,24.771121 35.896331,24.7799786 L35.8949324,24.7799786 C35.8711566,24.7827758 35.8473808,24.7851068 35.8231388,24.7869715 L35.8184769,24.7874377 C35.8082206,24.7879039 35.7979644,24.7888363 35.7877082,24.7893025 L35.7816477,24.7893025 L35.750879,24.7907011 L35.7187117,24.7911673 L35.7149822,24.7911673 C35.7042598,24.7911673 35.6935374,24.7907011 35.6828149,24.7907011 L35.6520463,24.7893025 L35.646452,24.7893025 L35.6152171,24.7874377 L35.6105552,24.7869715 C35.5867794,24.7851068 35.5630036,24.7827758 35.5387616,24.7799786 L35.5378292,24.7799786 C35.464637,24.7706548 35.3928434,24.7562028 35.3229146,24.7361566 L35.3219822,24.7361566 C35.3103274,24.7328932 35.2991388,24.7296299 35.2870178,24.7259004 L35.2856192,24.7254342 C35.2748968,24.7221708 35.2641744,24.7184413 35.253452,24.7147117 L35.251121,24.7142456 L35.2473915,24.712847 C35.2376014,24.7095836 35.2282776,24.7063203 35.2189537,24.7030569 L35.2110285,24.6997936 L35.1872527,24.6909359 L35.1718683,24.6848754 L35.1588149,24.6797473 L35.1341068,24.6690249 L35.1303772,24.6676263 C34.9662776,24.5953665 34.8203594,24.4960676 34.6982171,24.3762562 L34.6977509,24.37579 C34.6893594,24.3678648 34.6814342,24.3594733 34.6730427,24.3510819 C34.5541637,24.2294057 34.455331,24.0853523 34.3835374,23.9231174 L34.3779431,23.9105302 L34.3714164,23.8946797 L34.3625587,23.8732349 L34.358363,23.8634448 L34.3490391,23.8382705 L34.346242,23.829879 C34.3420463,23.8191566 34.3383167,23.8089004 34.3350534,23.7981779 L34.3345872,23.7977117 L34.3299253,23.7827936 L31.5411637,15.5111459 L28.7477402,23.7981779 C28.5421495,24.4070249 27.973395,24.7916335 27.3640819,24.7911673 C26.7547687,24.7916335 26.1860142,24.4070249 25.9804235,23.7981779 L21.8047402,11.4109858 C21.5474021,10.6478292 21.9576512,9.82033808 22.7208078,9.563 C23.4839644,9.30566192 24.3119217,9.71591103 24.5687936,10.4790676 Z M31.6474555,9.49027402 C31.6716975,9.4916726 31.6950071,9.49446975 31.7192491,9.4972669 L31.6474555,9.49027402 L31.6474555,9.49027402 Z" id="Fill-13" fill="#5E6269"></path>
                        </g>
                    </g>
                </g>
            </g>
        </g>
    </g>
</svg>