<?xml version="1.0" encoding="UTF-8" standalone="no"?>
<svg width="7px" height="10px" viewBox="0 0 7 10" version="1.1" xmlns="http://www.w3.org/2000/svg" xmlns:xlink="http://www.w3.org/1999/xlink">
    <!-- Generator: Sketch 42 (36781) - http://www.bohemiancoding.com/sketch -->
    <title>Path 3 Copy</title>
    <desc>Created with Sketch.</desc>
    <defs></defs>
    <g id="Page-1" stroke="none" stroke-width="1" fill="none" fill-rule="evenodd" stroke-linecap="round" stroke-linejoin="round">
        <g id="UI7.1-Категории---результаты-поиска" transform="translate(-219.000000, -1327.000000)" stroke="#FFFFFF">
            <g id="SIMILAR" transform="translate(209.000000, 1055.000000)">
                <g id="product" transform="translate(0.000000, 70.000000)">
                    <g id="Group-17" transform="translate(0.000000, 194.000000)">
                        <polyline id="Path-3-Copy" transform="translate(13.435000, 12.727982) rotate(-180.000000) translate(-13.435000, -12.727982) " points="11 17.4559633 15.8699999 12.5859634 11.2840364 8"></polyline>
                    </g>
                </g>
            </g>
        </g>
    </g>
</svg>