<?xml version="1.0" encoding="UTF-8" standalone="no"?>
<svg width="14px" height="9px" viewBox="0 0 14 9" version="1.1" xmlns="http://www.w3.org/2000/svg" xmlns:xlink="http://www.w3.org/1999/xlink">
    <!-- Generator: Sketch 42 (36781) - http://www.bohemiancoding.com/sketch -->
    <title>Path 3 Copy</title>
    <desc>Created with Sketch.</desc>
    <defs></defs>
    <g id="Page-1" stroke="none" stroke-width="1" fill="none" fill-rule="evenodd" stroke-linecap="round" stroke-linejoin="round">
        <g id="UI7.1-Категории---результаты-поиска" transform="translate(-341.000000, -1771.000000)" stroke="#5E6269" stroke-width="2">
            <g id="FOOTER" transform="translate(0.000000, 1628.000000)">
                <g id="button" transform="translate(211.000000, 125.000000)">
                    <polyline id="Path-3-Copy" transform="translate(136.935000, 22.698820) scale(-1, 1) rotate(-270.000000) translate(-136.935000, -22.698820) " points="134 28.3976396 139.87 22.5276397 134.34236 17"></polyline>
                </g>
            </g>
        </g>
    </g>
</svg>