<?xml version="1.0" encoding="UTF-8" standalone="no"?>
<svg width="21px" height="20px" viewBox="0 0 21 20" version="1.1" xmlns="http://www.w3.org/2000/svg" xmlns:xlink="http://www.w3.org/1999/xlink">
    <!-- Generator: Sketch 42 (36781) - http://www.bohemiancoding.com/sketch -->
    <title>Shape</title>
    <desc>Created with Sketch.</desc>
    <defs>
        <path d="M294.883727,40.5175152 L294.5,40.6865396 L294.116273,40.5175152 C289.184136,37.4755564 284,30.5513186 284,26.7055335 C284.016705,23.5564939 286.579182,21 289.727273,21 C291.717023,21 293.473386,22.0218293 294.5,23.5684985 C295.526614,22.0218293 297.282977,21 299.272727,21 C302.420818,21 304.983295,23.5564939 305,26.7055335 C305,30.5513186 299.815864,37.4755564 294.883727,40.5175152 L294.883727,40.5175152 Z" id="path-1"></path>
        <mask id="mask-2" maskContentUnits="userSpaceOnUse" maskUnits="objectBoundingBox" x="0" y="0" width="21" height="19.6865396" fill="white">
            <use xlink:href="#path-1"></use>
        </mask>
    </defs>
    <g id="Page-1" stroke="none" stroke-width="1" fill="none" fill-rule="evenodd" fill-opacity="0.4">
        <g id="UI7.1-Категории---результаты-поиска" transform="translate(-839.000000, -1146.000000)" stroke="#AFAFAF" stroke-width="2" fill="#FFFFFF">
            <g id="SIMILAR" transform="translate(209.000000, 1055.000000)">
                <g id="product-copy" transform="translate(346.000000, 70.000000)">
                    <use id="Shape" mask="url(#mask-2)" xlink:href="#path-1"></use>
                </g>
            </g>
        </g>
    </g>
</svg>