<?xml version="1.0" encoding="UTF-8" standalone="no"?>
<svg width="53px" height="50px" viewBox="0 0 53 50" version="1.1" xmlns="http://www.w3.org/2000/svg" xmlns:xlink="http://www.w3.org/1999/xlink">
    <!-- Generator: Sketch 42 (36781) - http://www.bohemiancoding.com/sketch -->
    <title>attention</title>
    <desc>Created with Sketch.</desc>
    <defs></defs>
    <g id="Page-1" stroke="none" stroke-width="1" fill="none" fill-rule="evenodd" stroke-linecap="round" stroke-linejoin="round">
        <g id="UI1.6.2-Модал-Категориии-(пусто)" transform="translate(-664.000000, -185.000000)" stroke="#4DC97B">
            <g id="product" transform="translate(210.000000, 71.000000)">
                <g id="Group-18" transform="translate(369.000000, 115.000000)">
                    <g id="attention" transform="translate(86.000000, 0.000000)">
                        <path d="M42.5,0 L9,0 C4,0 0,4 0,9 L0,29.9 C0,34.9 4,38.9 9,38.9 L11.4,38.9 L9.3,47.6 L18.9,38.9 L42.5,38.9 C47.5,38.9 51.5,34.9 51.5,29.9 L51.5,9 C51.5,4 47.5,0 42.5,0 Z" id="Shape"></path>
                    </g>
                </g>
            </g>
        </g>
    </g>
</svg>