<?xml version="1.0" encoding="UTF-8" standalone="no"?>
<svg width="88px" height="64px" viewBox="0 0 88 64" version="1.1" xmlns="http://www.w3.org/2000/svg" xmlns:xlink="http://www.w3.org/1999/xlink">
    <!-- Generator: Sketch 42 (36781) - http://www.bohemiancoding.com/sketch -->
    <title>Group</title>
    <desc>Created with Sketch.</desc>
    <defs></defs>
    <g id="Page-1" stroke="none" stroke-width="1" fill="none" fill-rule="evenodd" stroke-linecap="round" stroke-linejoin="round">
        <g id="+UI2.-Главная" transform="translate(-292.000000, -1569.000000)">
            <g id="CATEGORIES" transform="translate(0.000000, 1278.000000)">
                <g id="Group-15" transform="translate(210.000000, 60.000000)">
                    <g id="Group-13-Copy-7" transform="translate(0.000000, 200.000000)">
                        <g id="Group" transform="translate(83.000000, 31.000000)">
                            <g transform="translate(50.000000, 28.000000)" id="Shape" stroke="#A0A0A0">
                                <path d="M18.4,0.5 C8.7,0.5 0.9,8.4 0.9,18 C0.9,27.7 8.8,35.5 18.4,35.5 C28.1,35.5 35.9,27.6 35.9,18 C35.9,8.4 28.1,0.5 18.4,0.5 L18.4,0.5 Z"></path>
                                <polygon points="13.6 25.5 10.6 16.3 18.4 10.6 26.2 16.3 23.2 25.5"></polygon>
                                <polyline points="25.1 1.9 18.4 4.7 11.8 1.9"></polyline>
                                <polyline points="5.1 6.7 5.8 14 1 19.4"></polyline>
                                <polyline points="3.6 27.2 10.6 28.8 14.3 35.1"></polyline>
                                <polyline points="22.5 35.1 26.2 28.8 33.3 27.2"></polyline>
                                <polyline points="35.8 19.4 31 13.9 31.7 6.7"></polyline>
                                <path d="M18.4,4.7 L18.4,10.6"></path>
                                <path d="M26.2,16.5 L31,13.9"></path>
                                <path d="M23.2,25.5 L26.2,28.8"></path>
                                <path d="M13.6,25.5 L10.6,28.8"></path>
                                <path d="M5.8,14 L10.6,16.3"></path>
                            </g>
                            <path d="M55.7,59.1 C55.7,61.5 53.8,63.4 51.4,63.4 L9.6,63.4 C7.2,63.4 5.3,61.5 5.3,59.1 L5.3,21.2 C5.3,18.5 7.5,16.4 10.1,16.4 L10.1,16.4" id="Shape" stroke="#A0A0A0"></path>
                            <path d="M50.9,16.3 L50.9,16.3 C53.6,16.3 55.7,18.5 55.7,21.1 L55.7,34" id="Shape" stroke="#A0A0A0"></path>
                            <path d="M5.2,37.3 L0.3,37.3 L0.3,52.5 C0.3,55.2 2.5,57.4 5.2,57.4 L5.2,57.4" id="Shape" stroke="#A0A0A0"></path>
                            <path d="M38.2,34.6 L22.2,34.6" id="Shape" stroke="#FC988D"></path>
                            <path d="M20.6,12.3 L20.6,10.5 C20.6,5.2 24.9,0.9 30.2,0.9 L30.2,0.9 C35.5,0.9 39.8,5.2 39.8,10.5 L39.8,12.3" id="Shape" stroke="#A0A0A0"></path>
                            <polyline id="Shape" stroke="#FC988D" points="14.9 34.6 10.1 34.6 10.1 12.3 50.9 12.3 50.9 34.6 45.6 34.6"></polyline>
                            <polyline id="Shape" stroke="#FC988D" points="22 45 22 50.5 18.6 52.1 15.2 50.5 15.2 45"></polyline>
                            <polyline id="Shape" stroke="#FC988D" points="15.2 39.9 15.2 29.6 22 29.6 22 39.9"></polyline>
                            <polyline id="Shape" stroke="#FC988D" points="45.3 45.2 45.3 50.5 41.9 52.1 38.5 50.5 38.5 45.3"></polyline>
                            <polyline id="Shape" stroke="#FC988D" points="38.5 40.2 38.5 29.6 45.3 29.6 45.3 40.2"></polyline>
                            <rect id="Rectangle-path" stroke="#FC988D" x="12.9" y="40.2" width="11.4" height="4.5"></rect>
                            <rect id="Rectangle-path" stroke="#FC988D" x="36.2" y="40.5" width="11.4" height="4.5"></rect>
                        </g>
                    </g>
                </g>
            </g>
        </g>
    </g>
</svg>