<?xml version="1.0" encoding="UTF-8" standalone="no"?>
<svg width="20px" height="20px" viewBox="0 0 20 20" version="1.1" xmlns="http://www.w3.org/2000/svg" xmlns:xlink="http://www.w3.org/1999/xlink">
    <!-- Generator: Sketch 42 (36781) - http://www.bohemiancoding.com/sketch -->
    <title>Group 7</title>
    <desc>Created with Sketch.</desc>
    <defs></defs>
    <g id="Page-1" stroke="none" stroke-width="1" fill="none" fill-rule="evenodd">
        <g id="UI7.1-Категории---результаты-поиска" transform="translate(-990.000000, -1765.000000)">
            <g id="FOOTER" transform="translate(0.000000, 1628.000000)">
                <g id="Group-7" transform="translate(991.000000, 138.000000)">
                    <rect id="Rectangle-7" stroke="#E35F46" x="0" y="0" width="18" height="18" rx="5"></rect>
                    <circle id="Oval-3" stroke="#E35F46" cx="9" cy="9" r="4"></circle>
                    <ellipse id="XMLID_143_" fill="#E35F46" cx="13.7838462" cy="4.1976834" rx="1.07307692" ry="1.07722008"></ellipse>
                </g>
            </g>
        </g>
    </g>
</svg>