<?xml version="1.0" encoding="UTF-8" standalone="no"?>
<svg width="11px" height="21px" viewBox="0 0 11 21" version="1.1" xmlns="http://www.w3.org/2000/svg" xmlns:xlink="http://www.w3.org/1999/xlink">
    <!-- Generator: Sketch 42 (36781) - http://www.bohemiancoding.com/sketch -->
    <title>Facebook_3_</title>
    <desc>Created with Sketch.</desc>
    <defs></defs>
    <g id="Page-1" stroke="none" stroke-width="1" fill="none" fill-rule="evenodd">
        <g id="UI18.2.-Блог" transform="translate(-994.000000, -1382.000000)" stroke="#E35F46">
            <g id="FOOTER" transform="translate(0.000000, 1279.000000)">
                <path d="M996.945245,107.68229 L996.945245,110.299386 L995,110.299386 L995,113.500209 L996.945245,113.500209 L996.945245,123.009922 L1000.94247,123.009922 L1000.94247,113.500209 L1003.62359,113.500209 C1003.62359,113.500209 1003.87431,111.96502 1003.99634,110.28726 L1000.95677,110.28726 L1000.95677,108.098862 C1000.95677,107.772094 1001.39204,107.331923 1001.82299,107.331923 L1004,107.331923 L1004,104 L1001.04057,104 C996.846819,104.000328 996.945245,107.203772 996.945245,107.68229 L996.945245,107.68229 Z" id="Facebook_3_"></path>
            </g>
        </g>
    </g>
</svg>