<?xml version="1.0" encoding="UTF-8" standalone="no"?>
<svg width="24px" height="24px" viewBox="0 0 24 24" version="1.1" xmlns="http://www.w3.org/2000/svg" xmlns:xlink="http://www.w3.org/1999/xlink">
    <!-- Generator: Sketch 42 (36781) - http://www.bohemiancoding.com/sketch -->
    <title>Shape</title>
    <desc>Created with Sketch.</desc>
    <defs></defs>
    <g id="Page-1" stroke="none" stroke-width="1" fill="none" fill-rule="evenodd">
        <g id="UI18.2.-Блог" transform="translate(-972.000000, -29.000000)" stroke-width="0.2" stroke="#AFAFAF" fill="#AFAFAF">
            <g id="MENU" transform="translate(1.000000, 0.000000)">
                <g id="Group-3" transform="translate(972.000000, 20.000000)">
                    <g id="Group-33" transform="translate(0.000000, 10.000000)">
                        <g id="1485119721_lifebuoy">
                            <g id="Layer_1">
                                <path d="M11.002288,0.0123934426 C4.9422884,0.0123934426 0.0123934426,4.94243874 0.0123934426,11.0024082 C0.0123934426,17.0623778 4.9422884,21.992393 11.002288,21.992393 C17.0622274,21.992393 21.992393,17.0623778 21.992393,11.0024082 C21.992393,4.94243874 17.0622274,0.0123934426 11.002288,0.0123934426 L11.002288,0.0123934426 Z M16.5185239,10.1329097 L20.9908023,10.1329097 C21.0157594,10.4196454 21.0310343,10.7092077 21.0310343,11.0024082 C21.0310343,11.2954284 21.0157594,11.5848704 20.9908023,11.8716062 L16.5185239,11.8716062 C16.5633565,11.5875465 16.5930945,11.2986458 16.5930945,11.0024082 C16.5931245,10.70587 16.5630858,10.4169693 16.5185239,10.1329097 L16.5185239,10.1329097 Z M20.8604241,9.17155097 L16.3540778,9.17155097 C16.3294515,9.17155097 16.3055769,9.17530957 16.2817023,9.17879754 C15.7197471,7.55730911 14.4343373,6.27490617 12.8104734,5.71749133 C12.8241848,5.67323011 12.8335662,5.62722489 12.8335662,5.57854355 L12.8335662,1.14433225 C16.8972701,1.89755492 20.1072916,5.10754635 20.8604241,9.17155097 L20.8604241,9.17155097 Z M11.002288,15.6317358 C8.4497201,15.6317358 6.37281009,13.5550663 6.37281009,11.0024082 C6.37281009,8.4497201 8.44975017,6.37305064 11.002288,6.37305064 C13.5550363,6.37305064 15.6317959,8.4497201 15.6317959,11.0024082 C15.6317959,13.5550663 13.5550663,15.6317358 11.002288,15.6317358 L11.002288,15.6317358 Z M11.8721474,1.01386386 L11.8721474,5.48641284 C11.5878772,5.44176072 11.2989164,5.41172202 11.002288,5.41172202 C10.7061407,5.41172202 10.4172099,5.44164045 10.1334509,5.4862625 L10.1334509,1.01374359 C10.4199161,0.989057129 10.709358,0.973752126 11.002288,0.973752126 C11.2954284,0.973752126 11.5851711,0.989027061 11.8721474,1.01386386 L11.8721474,1.01386386 Z M9.17209221,1.1440917 L9.17209221,5.57857362 C9.17209221,5.62710461 9.18147366,5.6731399 9.19488434,5.71725078 C7.57071978,6.27436494 6.28506942,7.5572189 5.72287364,9.17882761 C5.69926966,9.17533964 5.67539506,9.17158104 5.65043798,9.17158104 L1.1440917,9.17158104 C1.8972843,5.10724567 5.1077869,1.89716402 9.17209221,1.1440917 L9.17209221,1.1440917 Z M0.973752126,11.0024082 C0.973752126,10.7092077 0.989057129,10.4196454 1.01374359,10.1329097 L5.48602195,10.1329097 C5.4414901,10.4169693 5.41148147,10.70584 5.41148147,11.0024082 C5.41148147,11.2986758 5.44152017,11.5875465 5.48602195,11.8716062 L1.01374359,11.8716062 C0.989057129,11.5848704 0.973752126,11.2954284 0.973752126,11.0024082 L0.973752126,11.0024082 Z M1.1440917,12.8329949 L5.65046805,12.8329949 C5.67542513,12.8329949 5.69899904,12.8292363 5.72290371,12.8257483 C6.28218282,14.4399902 7.55896289,15.7180031 9.1723929,16.2792968 C9.1723929,16.2803191 9.17212228,16.2811009 9.17212228,16.2822135 L9.17212228,20.8607248 C5.10754635,20.1076224 1.8972843,16.8972701 1.1440917,12.8329949 L1.1440917,12.8329949 Z M10.1334509,20.991103 L10.1334509,16.5185239 C10.4172399,16.5632061 10.7061407,16.5930945 11.002288,16.5930945 C11.2988863,16.5930945 11.5878772,16.5630558 11.8721474,16.5184037 L11.8721474,20.9909526 C11.5851711,21.0157594 11.2954284,21.0310343 11.002288,21.0310343 C10.709358,21.0310343 10.4199161,21.0157894 10.1334509,20.991103 L10.1334509,20.991103 Z M12.8335361,20.8604241 L12.8335361,16.2822135 C12.8335361,16.2811009 12.8329648,16.2801087 12.8329648,16.2790262 C14.4460641,15.7175821 15.7226337,14.4397196 16.2816722,12.8257483 C16.3055468,12.8292363 16.3294214,12.8329949 16.3540478,12.8329949 L20.860364,12.8329949 C20.1075623,16.8970597 16.8975708,20.1072916 12.8335361,20.8604241 L12.8335361,20.8604241 Z" id="Shape"></path>
                            </g>
                        </g>
                    </g>
                </g>
            </g>
        </g>
    </g>
</svg>