<?xml version="1.0" encoding="UTF-8" standalone="no"?>
<svg width="17px" height="23px" viewBox="0 0 17 23" version="1.1" xmlns="http://www.w3.org/2000/svg" xmlns:xlink="http://www.w3.org/1999/xlink">
    <!-- Generator: Sketch 42 (36781) - http://www.bohemiancoding.com/sketch -->
    <title>Group</title>
    <desc>Created with Sketch.</desc>
    <defs></defs>
    <g id="Page-1" stroke="none" stroke-width="1" fill="none" fill-rule="evenodd">
        <g id="UI18.2.-Блог" transform="translate(-726.000000, -26.000000)" fill-rule="nonzero" fill="#4CDB58">
            <g id="MENU" transform="translate(1.000000, 0.000000)">
                <g id="Group-6" transform="translate(708.000000, 21.000000)">
                    <g id="Group" transform="translate(17.000000, 5.000000)">
                        <path d="M16.2,6.5 L14.7,6.5 C14.4,6.5 14.2,6.7 14.2,7 C14.2,7.3 14.4,7.5 14.7,7.5 L15.7,7.5 L15.7,21.4 L1,21.4 L1,7.5 L2,7.5 C2.3,7.5 2.5,7.3 2.5,7 C2.5,6.7 2.3,6.5 2,6.5 L0.5,6.5 C0.2,6.5 0,6.7 0,7 L0,22 C0,22.3 0.2,22.5 0.5,22.5 L16.2,22.5 C16.5,22.5 16.7,22.3 16.7,22 L16.7,7 C16.7,6.8 16.5,6.5 16.2,6.5 Z" id="Shape"></path>
                        <path d="M4.3,16.9 C4,16.9 3.8,17.1 3.8,17.4 C3.8,17.7 4,17.9 4.3,17.9 L12.5,17.9 C12.8,17.9 13,17.7 13,17.4 C13,17.1 12.8,16.9 12.5,16.9 L4.3,16.9 Z" id="Shape"></path>
                        <path d="M4.8,8.8 L4.1,12.7 C4.1,12.9 4.1,13.1 4.3,13.2 C4.4,13.3 4.5,13.3 4.6,13.3 C4.7,13.3 4.8,13.3 4.8,13.2 L8.3,11.3 L11.8,13.2 C12,13.3 12.2,13.3 12.3,13.2 C12.5,13.1 12.5,12.9 12.5,12.7 L11.8,8.8 L14.6,6 C14.7,5.9 14.8,5.7 14.7,5.5 C14.6,5.3 14.5,5.2 14.3,5.2 L10.4,4.6 L8.6,1 C8.4,0.7 7.9,0.7 7.7,1 L5.9,4.6 L2,5.2 C1.8,5.2 1.7,5.4 1.6,5.5 C1.5,5.7 1.6,5.9 1.7,6 L4.8,8.8 Z M6.6,5.6 C6.8,5.6 6.9,5.5 7,5.3 L8.4,2.4 L9.8,5.3 C9.9,5.4 10,5.6 10.2,5.6 L13.4,6.1 L11.1,8.4 C11,8.5 10.9,8.7 11,8.8 L11.5,12 L8.6,10.5 C8.5,10.5 8.4,10.4 8.4,10.4 C8.4,10.4 8.2,10.4 8.2,10.5 L5.3,12 L5.8,8.8 C5.8,8.6 5.8,8.5 5.7,8.4 L3.4,6.1 L6.6,5.6 Z" id="Shape"></path>
                    </g>
                </g>
            </g>
        </g>
    </g>
</svg>