<?xml version="1.0" encoding="UTF-8" standalone="no"?>
<svg width="55px" height="59px" viewBox="0 0 55 59" version="1.1" xmlns="http://www.w3.org/2000/svg" xmlns:xlink="http://www.w3.org/1999/xlink">
    <!-- Generator: Sketch 42 (36781) - http://www.bohemiancoding.com/sketch -->
    <title>Group</title>
    <desc>Created with Sketch.</desc>
    <defs></defs>
    <g id="Page-1" stroke="none" stroke-width="1" fill="none" fill-rule="evenodd" stroke-linecap="round" stroke-linejoin="round">
        <g id="+UI2.-Главная" transform="translate(-216.000000, -6532.000000)" stroke="#FFFFFF">
            <g id="Group-11" transform="translate(0.000000, 579.000000)">
                <g id="Statistic" transform="translate(0.000000, 5893.000000)">
                    <g id="Group-10" transform="translate(217.000000, 60.000000)">
                        <g id="Group">
                            <path d="M14.6,49.4 C13.3,49.3 12.1,48.7 11.4,47.5 L0.9,31.2 C-0.3,29.3 0.2,26.8 2.1,25.5 L26.6,9.7 C27.5,9.1 28.6,8.9 29.7,9.1 L37.7,10.8" id="Shape"></path>
                            <path d="M47.4,18.5 L49.9,28.1 C50.2,29.1 50,30.3 49.5,31.2 L34.9,56.2 C33.8,58.2 31.2,58.8 29.3,57.7 L12.6,47.9 C10.6,46.8 10,44.3 11.1,42.3 L25.8,17.2 C26.3,16.3 27.2,15.6 28.3,15.3 L41.5,11.9 C43.7,11.3 45.9,12.6 46.5,14.8 L46.7,15.5" id="Shape"></path>
                            <path d="M42.2,23.1 C42.3,25 41.1,26.8 39.1,27.3 C36.9,27.9 34.7,26.6 34.1,24.4 C33.5,22.2 34.8,20 37,19.4 C38.6,19 40.3,19.6 41.3,20.9" id="Shape"></path>
                            <path d="M34.9,42.7 L23.4,35.8" id="Shape"></path>
                            <path d="M32.6,46.5 L21.1,39.6" id="Shape"></path>
                            <path d="M30.3,50.4 L18.8,43.5" id="Shape"></path>
                            <path d="M39.8,12.2 C40.2,11.4 40.7,10.6 41.1,9.7 C44.8,3.5 49.8,-0.5 52.1,0.9 C54.4,2.3 53.2,8.5 49.5,14.7 C45.8,20.9 40.8,24.9 38.5,23.5 C37.5,22.9 37.1,21.3 37.4,19.2" id="Shape"></path>
                        </g>
                    </g>
                </g>
            </g>
        </g>
    </g>
</svg>