<?xml version="1.0" encoding="UTF-8" standalone="no"?>
<svg width="10px" height="6px" viewBox="0 0 10 6" version="1.1" xmlns="http://www.w3.org/2000/svg" xmlns:xlink="http://www.w3.org/1999/xlink">
    <!-- Generator: Sketch 42 (36781) - http://www.bohemiancoding.com/sketch -->
    <title>Path 3 Copy</title>
    <desc>Created with Sketch.</desc>
    <defs></defs>
    <g id="Page-1" stroke="none" stroke-width="1" fill="none" fill-rule="evenodd" stroke-linecap="round" stroke-linejoin="round">
        <g id="UI1.6.7-------Дропдаун--при-фокусе-на-даты-с-историей-прошлых-дат" transform="translate(-1201.000000, -118.000000)" stroke="#E35F46" stroke-width="2">
            <g id="product" transform="translate(572.000000, 71.000000)">
                <polyline id="Path-3-Copy" transform="translate(633.757144, 49.935000) scale(-1, 1) rotate(-270.000000) translate(-633.757144, -49.935000) " points="631.822144 53.6921435 635.692143 49.8221436 632.047856 46.1778564"></polyline>
            </g>
        </g>
    </g>
</svg>