<?xml version="1.0" encoding="UTF-8" standalone="no"?>
<svg width="50px" height="55px" viewBox="0 0 50 55" version="1.1" xmlns="http://www.w3.org/2000/svg" xmlns:xlink="http://www.w3.org/1999/xlink">
    <!-- Generator: Sketch 42 (36781) - http://www.bohemiancoding.com/sketch -->
    <title>Group</title>
    <desc>Created with Sketch.</desc>
    <defs></defs>
    <g id="Page-1" stroke="none" stroke-width="1" fill="none" fill-rule="evenodd" stroke-linecap="round" stroke-linejoin="round">
        <g id="+UI2.-Главная" transform="translate(-989.000000, -6533.000000)" stroke="#FFFFFF">
            <g id="Group-11" transform="translate(0.000000, 579.000000)">
                <g id="Statistic" transform="translate(0.000000, 5893.000000)">
                    <g id="Group-9" transform="translate(990.000000, 62.000000)">
                        <g id="Group">
                            <path d="M4.5,43 L0.4,43 L0.4,31.4 C0.4,26.6 4.3,22.7 9.1,22.7 L10.4,22.7" id="Shape"></path>
                            <g transform="translate(5.000000, 8.000000)" id="Shape">
                                <path d="M10.7,6.9 C10.7,9.8 8.4,13.4 5.5,13.4 C2.6,13.4 0.3,9.8 0.3,6.9 C0.3,4 0.3,0.4 5.5,0.4 C10.7,0.4 10.7,4 10.7,6.9 Z"></path>
                                <path d="M38.4,6.9 C38.4,9.8 36.1,13.4 33.2,13.4 C30.3,13.4 28,9.8 28,6.9 C28,4 28,0.4 33.2,0.4 C38.4,0.4 38.4,4 38.4,6.9 Z"></path>
                            </g>
                            <path d="M37.8,22.7 C43.5,22.7 48.2,27.4 48.2,33.1 L48.2,43 L42.9,43" id="Shape"></path>
                            <path d="M20.5,21.4 C20.1,22.1 19.8,22.9 19.8,23.7 C19.8,26.2 21.8,28.2 24.3,28.2 C26.8,28.2 28.8,26.2 28.8,23.7 C28.8,23.1 28.7,22.5 28.4,21.9 L27.8,21" id="Shape"></path>
                            <path d="M33,11.2 C33,16 29.1,22 24.3,22 C19.5,22 15.7,16 15.7,11.2 C15.7,6.4 15.7,0.4 24.3,0.4 C32.9,0.4 33,6.4 33,11.2 Z" id="Shape"></path>
                            <path d="M35.1,53.4 L35.1,40.9" id="Shape"></path>
                            <path d="M28.8,44.7 L29,44.7 C29.6,44.7 30.1,45.2 30.1,45.8 L30.1,45.8 C30.1,46.4 29.6,46.9 29,46.9 L29,46.9 L28.4,53.3 L19.4,53.3 L19.4,45.4 L23.7,39.9 L24,40 C24.7,40.2 25,40.9 24.8,41.6 L24,44.7 L28.8,44.7" id="Shape"></path>
                            <path d="M19.3,45.8 L10.8,43.5" id="Shape"></path>
                            <path d="M32.8,53.4 L38.3,53.4 C41.4,53.4 43.8,50.7 43.4,47.7 L41.4,29.7 C41.4,25.5 37.9,22 33.7,22 L28.8,22" id="Shape"></path>
                            <path d="M19.4,53.4 L9,53.4 C5.8,53.4 3.4,50.5 3.9,47.4 L7.2,28.4 C7.9,24.8 10.1,22 13.6,22 L19.8,22" id="Shape"></path>
                            <path d="M26.8,16.3 C26.4,17.3 25.4,18 24.3,18 C23.2,18 22.2,17.3 21.8,16.4" id="Shape"></path>
                        </g>
                    </g>
                </g>
            </g>
        </g>
    </g>
</svg>