<?xml version="1.0" encoding="UTF-8" standalone="no"?>
<svg width="84px" height="62px" viewBox="0 0 84 62" version="1.1" xmlns="http://www.w3.org/2000/svg" xmlns:xlink="http://www.w3.org/1999/xlink">
    <!-- Generator: Sketch 42 (36781) - http://www.bohemiancoding.com/sketch -->
    <title>Group</title>
    <desc>Created with Sketch.</desc>
    <defs></defs>
    <g id="Page-1" stroke="none" stroke-width="1" fill="none" fill-rule="evenodd" stroke-linecap="round" stroke-linejoin="round">
        <g id="+UI2.-Главная" transform="translate(-1068.000000, -1368.000000)">
            <g id="CATEGORIES" transform="translate(0.000000, 1278.000000)">
                <g id="Group-15" transform="translate(210.000000, 60.000000)">
                    <g id="Group-13-Copy-3" transform="translate(780.000000, 0.000000)">
                        <g id="Group" transform="translate(79.000000, 31.000000)">
                            <polyline id="Shape" stroke="#66BC80" points="16.8 34.9 16.8 7 30.6 7"></polyline>
                            <polyline id="Shape" stroke="#66BC80" points="52.7 7 66.6 7 66.6 60.5 16.8 60.5 16.8 47.2"></polyline>
                            <polyline id="Shape" stroke="#66BC80" points="41.7 10.5 36.5 15.6 30.3 10.5 32.3 0 51.1 0 53.1 10.5 46.8 15.6 41.7 10.5"></polyline>
                            <path d="M51.1,0 L41.7,10.5" id="Shape" stroke="#66BC80"></path>
                            <path d="M32.3,0 L41.7,10.5" id="Shape" stroke="#66BC80"></path>
                            <path d="M40.1,3.7 L43.3,3.7" id="Shape" stroke="#66BC80"></path>
                            <polyline id="Shape" stroke="#66BC80" points="44.7 13.5 44.7 25.4 38.7 25.4 38.7 13.5"></polyline>
                            <polygon id="Shape" stroke="#66BC80" points="59.3 36.6 54.2 39 48.8 36.6 48.8 27.9 59.3 27.9"></polygon>
                            <path d="M48.8,31.3 L59.3,31.3" id="Shape" stroke="#66BC80"></path>
                            <g transform="translate(0.000000, 35.000000)" id="Shape" stroke="#A0A0A0">
                                <path d="M22.9,3.1 L22.9,3.1 C27.1,1.9 31.6,1.9 35.9,3.1 L35.9,3.1 L35.9,8.4 C35.9,11.1 33.7,13.3 31,13.3 L27.8,13.3 C25.1,13.3 22.9,11.1 22.9,8.4 L22.9,3.1 L22.9,3.1 Z"></path>
                                <path d="M5.6,3.1 L5.6,3.1 C9.8,1.9 14.3,1.9 18.6,3.1 L18.6,3.1 L18.6,8.4 C18.6,11.1 16.4,13.3 13.7,13.3 L10.5,13.3 C7.8,13.3 5.6,11.1 5.6,8.4 L5.6,3.1 L5.6,3.1 Z"></path>
                                <path d="M3.4,4.3 L2.6,3.5 C1.9,2.8 1.8,1.7 2.4,0.9 L2.4,0.9 C2.8,0.3 3.4,0 4.1,0 L16.8,0 C18,0 19.1,0.5 19.9,1.3 L19.9,1.3 C20.4,1.8 21.2,1.8 21.7,1.3 L21.7,1.3 C22.5,0.5 23.7,0 24.8,0 L37.5,0 C38.2,0 38.8,0.3 39.2,0.9 L39.2,0.9 C39.8,1.7 39.7,2.8 39,3.5 L38.2,4.3"></path>
                                <path d="M5.6,3.1 L0.8,8.1 C0.3,8.5 0.2,9.3 0.7,9.8 L0.7,9.8 C1.1,10.3 2.9,10.3 3.4,10 L5.7,6.3"></path>
                                <path d="M35.9,3.1 L40.7,8.1 C41.2,8.5 41.3,9.3 40.8,9.8 L40.8,9.8 C40.4,10.3 38.6,10.3 38.1,10 L35.8,6.3"></path>
                                <path d="M18.6,7.5 L18.6,7 C18.6,5.8 19.6,4.8 20.8,4.8 L20.8,4.8 C22,4.8 23,5.8 23,7 L23,7.5"></path>
                            </g>
                            <polyline id="Shape" stroke="#A0A0A0" points="72.9 45.6 74 39.8 79.4 39.8 80.4 45.6"></polyline>
                            <polyline id="Shape" stroke="#A0A0A0" points="80.4 54.2 79.4 59.9 74 59.9 72.9 54.2"></polyline>
                            <circle id="Oval" stroke="#A0A0A0" cx="76.7" cy="49.9" r="5.5"></circle>
                        </g>
                    </g>
                </g>
            </g>
        </g>
    </g>
</svg>