<?xml version="1.0" encoding="UTF-8" standalone="no"?>
<svg width="18px" height="19px" viewBox="0 0 18 19" version="1.1" xmlns="http://www.w3.org/2000/svg" xmlns:xlink="http://www.w3.org/1999/xlink">
    <defs></defs>
    <g id="Page-1" stroke="none" stroke-width="1" fill="none" fill-rule="evenodd">
        <g id="UI13.2----Мой-профиль" transform="translate(-536.000000, -920.000000)" fill-rule="nonzero" fill="#AFAFAF">
            <g id="review" transform="translate(210.000000, 751.000000)">
                <g id="Group-25" transform="translate(20.000000, 63.000000)">
                    <g id="button" transform="translate(284.000000, 98.000000)">
                        <path d="M27.1461851,10.7088095 L27.1461851,23.4189583 C27.1461851,23.4189583 27.1461851,28.2113113 31.313447,28.2113094 C35.4807089,28.2113076 35.4807089,23.4189583 35.4807089,23.4189583 L35.4807089,10.7088095 C35.4807089,10.1879018 34.5546507,10.1879018 34.5546507,10.7088095 L34.5546507,23.4189592 C34.5546507,23.4189592 34.8913988,27.2642045 31.313447,27.2642045 C28.0722433,27.2642045 28.0722433,23.4189592 28.0722433,23.4189592 L28.0722433,10.7088095 C28.0722433,10.7088095 28.0722433,8.32210592 30.3873888,8.32210497 C32.7025343,8.32210403 32.7025343,10.7088095 32.7025343,10.7088095 L32.7025343,23.4189592 C32.7025343,23.4189592 32.7025343,24.9130685 31.351245,24.9130675 C29.9999566,24.9130656 29.9243597,23.4189592 29.9243597,23.4189592 L29.9243597,11.3338988 C29.9243597,10.8129911 28.9983015,10.8129911 28.9983015,11.3338988 L28.9983015,23.4189583 C28.9983015,23.4189583 28.8256324,25.9548849 31.351245,25.954883 C33.6285925,25.9548811 33.6285925,23.4189583 33.6285925,23.4189583 L33.6285925,10.7088095 C33.6285925,10.7088095 33.6285925,7.37499905 30.3873888,7.375 C27.1461851,7.37500095 27.1461851,10.7088095 27.1461851,10.7088095 Z" id="attach" transform="translate(31.313447, 17.793155) rotate(45.000000) translate(-31.313447, -17.793155) "></path>
                    </g>
                </g>
            </g>
        </g>
    </g>
</svg>