<?xml version="1.0" encoding="UTF-8" standalone="no"?>
<svg width="18px" height="18px" viewBox="0 0 18 18" version="1.1" xmlns="http://www.w3.org/2000/svg" xmlns:xlink="http://www.w3.org/1999/xlink">
    <defs></defs>
    <g id="Page-1" stroke="none" stroke-width="1" fill="none" fill-rule="evenodd">
        <g id="UI13.2----Мой-профиль" transform="translate(-671.000000, -1156.000000)" fill-rule="nonzero" fill="#AFAFAF">
            <g id="reviews" transform="translate(210.000000, 1019.000000)">
                <g id="Group-22" transform="translate(21.000000, 86.000000)">
                    <g id="Group-20">
                        <g id="Group-4">
                            <g id="Group-24" transform="translate(422.000000, 26.000000)">
                                <g id="edit_icon" transform="translate(18.000000, 25.000000)">
                                    <path d="M15.6,9.6 C15.3,9.6 15.1,9.8 15.1,10.1 L15.1,16.5 L1.7,16.5 L1.7,3.1 L8.2,3.1 C8.5,3.1 8.7,2.9 8.7,2.6 C8.7,2.3 8.5,2.1 8.2,2.1 L1.2,2.1 C0.9,2.1 0.7,2.3 0.7,2.6 L0.7,17 C0.7,17.3 0.9,17.5 1.2,17.5 L15.6,17.5 C15.9,17.5 16.1,17.3 16.1,17 L16.1,10.1 C16.1,9.9 15.9,9.6 15.6,9.6 Z" id="Shape"></path>
                                    <path d="M17.7,3.8 L14.5,0.6 C14.3,0.4 14,0.4 13.8,0.6 L5.4,9 C5.3,9.1 5.3,9.2 5.3,9.3 L4.7,13 C4.7,13.2 4.7,13.3 4.8,13.4 C4.9,13.5 5,13.5 5.2,13.5 L5.3,13.5 L9,12.9 C9.1,12.9 9.2,12.8 9.3,12.8 L17.7,4.4 C17.9,4.3 17.9,4 17.7,3.8 Z M8.7,12 L5.8,12.4 L6.2,9.5 L11.8,3.9 L14.2,6.3 L8.7,12 Z M15.1,5.7 L12.7,3.3 L14.3,1.7 L16.7,4.1 L15.1,5.7 Z" id="Shape"></path>
                                </g>
                            </g>
                        </g>
                    </g>
                </g>
            </g>
        </g>
    </g>
</svg>