<?xml version="1.0" encoding="UTF-8" standalone="no"?>
<svg width="23px" height="16px" viewBox="0 0 23 16" version="1.1" xmlns="http://www.w3.org/2000/svg" xmlns:xlink="http://www.w3.org/1999/xlink">
    <!-- Generator: Sketch 42 (36781) - http://www.bohemiancoding.com/sketch -->
    <title>1483751984_Google_Plus_Color</title>
    <desc>Created with Sketch.</desc>
    <defs></defs>
    <g id="Page-1" stroke="none" stroke-width="1" fill="none" fill-rule="evenodd">
        <g id="UI18.2.-Блог" transform="translate(-992.000000, -1484.000000)" stroke="#E35F46">
            <g id="FOOTER" transform="translate(0.000000, 1279.000000)">
                <g id="1483751984_Google_Plus_Color" transform="translate(993.000000, 206.000000)">
                    <g id="Layer_1">
                        <g id="XMLID_246_">
                            <g id="XMLID_30_">
                                <path d="M6.82184874,5.46905929 L6.82184874,8.16937442 C6.82184874,8.16937442 9.43794351,8.16411064 10.5064893,8.16411064 C9.92747432,9.91168301 9.03263305,10.8644258 6.82184874,10.8644258 C4.58474556,10.8644258 2.84243697,9.05368814 2.84243697,6.81658497 C2.84243697,4.57948179 4.59000934,2.76874416 6.82184874,2.76874416 C8.00619748,2.76874416 8.76944444,3.18458217 9.46952614,3.76359711 C10.0327498,3.20037348 9.98537582,3.1214169 11.4118581,1.77389122 C10.2011905,0.673762838 8.59047619,0 6.82711251,0 C3.06351541,0 0.0105275444,3.05298786 0.0105275444,6.81658497 C0.0105275444,10.5801821 3.06351541,13.6331699 6.82711251,13.6331699 C12.454085,13.6331699 13.8279295,8.73259804 13.3699813,5.46905929 L6.82184874,5.46905929 L6.82184874,5.46905929 Z M19.107493,5.60065359 L19.107493,3.23721989 L17.4230859,3.23721989 L17.4230859,5.60065359 L14.9964869,5.60065359 L14.9964869,7.28506069 L17.4230859,7.28506069 L17.4230859,9.71165966 L19.107493,9.71165966 L19.107493,7.28506069 L21.4709267,7.28506069 L21.4709267,5.60065359 L19.107493,5.60065359 L19.107493,5.60065359 Z" id="XMLID_31_"></path>
                            </g>
                        </g>
                    </g>
                </g>
            </g>
        </g>
    </g>
</svg>