<?xml version="1.0" encoding="UTF-8" standalone="no"?>
<svg width="26px" height="28px" viewBox="0 0 26 28" version="1.1" xmlns="http://www.w3.org/2000/svg" xmlns:xlink="http://www.w3.org/1999/xlink">
    <!-- Generator: Sketch 42 (36781) - http://www.bohemiancoding.com/sketch -->
    <title>Group</title>
    <desc>Created with Sketch.</desc>
    <defs></defs>
    <g id="Page-1" stroke="none" stroke-width="1" fill="none" fill-rule="evenodd">
        <g id="UI9.-Карточка-товара---альтернатива" transform="translate(-230.000000, -971.000000)" fill-rule="nonzero" fill="#AFAFAF">
            <g id="DESCRIBTION" transform="translate(210.000000, 624.000000)">
                <g id="about" transform="translate(0.000000, 315.000000)">
                    <g id="Group" transform="translate(20.000000, 32.000000)">
                        <path d="M9.4,24.9 L1.3,24.9 L1.3,7.1 L6.8,7.1 C7.1,7.1 7.3,6.9 7.3,6.6 L7.3,1.1 L20.1,1.1 L20.1,10.1 C20.1,10.4 20.3,10.6 20.6,10.6 C20.9,10.6 21.1,10.4 21.1,10.1 L21.1,0.6 C21.1,0.3 20.9,0.1 20.6,0.1 L6.8,0.1 L6.6,0.1 C6.6,0.1 6.5,0.1 6.5,0.2 C6.5,0.2 6.5,0.2 6.4,0.2 L6.4,0.2 L6.4,0.2 L3.2,3.3 L0.4,6.2 L0.4,6.2 L0.4,6.2 C0.4,6.2 0.4,6.2 0.4,6.3 C0.4,6.3 0.4,6.4 0.3,6.4 L0.3,6.6 L0.3,25.4 C0.3,25.7 0.5,25.9 0.8,25.9 L9.4,25.9 C9.7,25.9 9.9,25.7 9.9,25.4 C9.9,25.1 9.7,24.9 9.4,24.9 Z M4,4.1 L6.3,1.8 L6.3,6.1 L2,6.1 L4,4.1 Z" id="Shape"></path>
                        <path d="M25.7,27 L23.6,24.9 C24.9,23.5 25.6,21.6 25.6,19.6 C25.6,15.1 22,11.5 17.5,11.5 C13,11.5 9.4,15.1 9.4,19.6 C9.4,24.1 13,27.7 17.5,27.7 C19.6,27.7 21.4,26.9 22.8,25.7 L24.9,27.8 C25,27.9 25.1,27.9 25.3,27.9 C25.5,27.9 25.6,27.9 25.7,27.8 C25.9,27.6 25.9,27.2 25.7,27 Z M10.4,19.5 C10.4,15.6 13.6,12.4 17.5,12.4 C21.4,12.4 24.6,15.6 24.6,19.5 C24.6,23.4 21.4,26.6 17.5,26.6 C13.6,26.6 10.4,23.5 10.4,19.5 Z" id="Shape"></path>
                        <path d="M18.9,22.7 L18,22.7 L18,18.9 C18,18.6 17.8,18.4 17.5,18.4 L16.2,18.4 C15.9,18.4 15.7,18.6 15.7,18.9 C15.7,19.2 15.9,19.4 16.2,19.4 L17,19.4 L17,22.7 L16.2,22.7 C15.9,22.7 15.7,22.9 15.7,23.2 C15.7,23.5 15.9,23.7 16.2,23.7 L18.8,23.7 C19.1,23.7 19.3,23.5 19.3,23.2 C19.3,22.9 19.1,22.7 18.9,22.7 Z" id="Shape"></path>
                        <circle id="Oval" cx="17.3" cy="15.9" r="1.1"></circle>
                    </g>
                </g>
            </g>
        </g>
    </g>
</svg>