<?xml version="1.0" encoding="UTF-8" standalone="no"?>
<svg width="19px" height="18px" viewBox="0 0 19 18" version="1.1" xmlns="http://www.w3.org/2000/svg" xmlns:xlink="http://www.w3.org/1999/xlink">
    <!-- Generator: Sketch 42 (36781) - http://www.bohemiancoding.com/sketch -->
    <title>Group</title>
    <desc>Created with Sketch.</desc>
    <defs></defs>
    <g id="Page-1" stroke="none" stroke-width="1" fill="none" fill-rule="evenodd">
        <g id="UI9.-Карточка-товара---альтернатива" transform="translate(-230.000000, -1374.000000)" fill-rule="nonzero" fill="#AFAFAF">
            <g id="DESCRIBTION" transform="translate(210.000000, 624.000000)">
                <g id="Group-5">
                    <g id="Group-29" transform="translate(20.000000, 750.000000)">
                        <g id="Group">
                            <path d="M9.6,0.1 C7.6,0.1 5.7,0.8 4.2,2 C3.7,2.4 3.3,2.8 2.8,3.3 C2.4,3.7 2.1,4.2 1.9,4.7 C1.2,5.9 0.9,7.3 0.9,8.8 C0.9,13.6 4.8,17.6 9.7,17.6 C14.5,17.6 18.5,13.7 18.5,8.8 C18.3,4 14.4,0.1 9.6,0.1 Z M9.6,16.6 C5.3,16.6 1.8,13.1 1.8,8.8 C1.8,7.5 2.1,6.2 2.7,5.1 C2.9,4.7 3.2,4.2 3.5,3.9 C3.9,3.5 4.3,3.1 4.7,2.7 C6.1,1.6 7.7,1 9.5,1 C13.8,1 17.3,4.5 17.3,8.8 C17.3,13.1 13.8,16.6 9.6,16.6 Z" id="Shape"></path>
                            <path d="M12.5,8.4 L10.1,8.4 L10.1,6 C10.1,5.7 9.9,5.5 9.6,5.5 C9.3,5.5 9.1,5.7 9.1,6 L9.1,8.9 C9.1,9.2 9.3,9.4 9.6,9.4 L12.5,9.4 C12.8,9.4 13,9.2 13,8.9 C13,8.6 12.7,8.4 12.5,8.4 Z" id="Shape"></path>
                        </g>
                    </g>
                </g>
            </g>
        </g>
    </g>
</svg>