<?xml version="1.0" encoding="UTF-8" standalone="no"?>
<svg width="8px" height="14px" viewBox="0 0 8 14" version="1.1" xmlns="http://www.w3.org/2000/svg" xmlns:xlink="http://www.w3.org/1999/xlink">
    <defs></defs>
    <g id="Page-1" stroke="none" stroke-width="1" fill="none" fill-rule="evenodd" stroke-linecap="round" stroke-linejoin="round">
        <g id="+UI2.-Главная" transform="translate(-384.000000, -6256.000000)" stroke-width="2" stroke="#E35F46">
            <g id="Group-11" transform="translate(0.000000, 579.000000)">
                <g id="STATISTICS" transform="translate(0.000000, 5404.000000)">
                    <g id="Bitmap">
                        <g id="Group-5" transform="translate(210.000000, 160.000000)">
                            <polyline id="Path-3" points="175 125.39915 180.870778 119.528372 175.342406 114"></polyline>
                        </g>
                    </g>
                </g>
            </g>
        </g>
    </g>
</svg>