<?xml version="1.0" encoding="UTF-8" standalone="no"?>
<svg width="16px" height="15px" viewBox="0 0 16 15" version="1.1" xmlns="http://www.w3.org/2000/svg" xmlns:xlink="http://www.w3.org/1999/xlink">
    <defs></defs>
    <g id="Page-1" stroke="none" stroke-width="1" fill="none" fill-rule="evenodd">
        <g id="UI13.2----Мой-профиль" transform="translate(-671.000000, -1199.000000)" fill="#AFAFAF">
            <g id="reviews" transform="translate(210.000000, 1019.000000)">
                <g id="Group-22" transform="translate(21.000000, 86.000000)">
                    <g id="Group-20">
                        <g id="Group-4">
                            <g id="Group-24" transform="translate(422.000000, 26.000000)">
                                <g id="report_icon" transform="translate(18.000000, 68.000000)">
                                    <path d="M14.8,0.4 L1.8,0.4 C1.2,0.4 0.7,0.9 0.7,1.5 L0.7,10.9 C0.7,11.5 1.2,12 1.8,12 L3.2,12 L3.2,13.8 C3.2,14 3.3,14.2 3.5,14.3 L3.7,14.3 C3.8,14.3 3.9,14.3 4,14.2 L6.4,12 L14.7,12 C15.3,12 15.8,11.5 15.8,10.9 L15.8,1.5 C15.9,0.9 15.4,0.4 14.8,0.4 Z M14.9,10.9 C14.9,11 14.8,11 14.8,11 L6.3,11 C6.2,11 6.1,11 6,11.1 L4.3,12.6 L4.3,11.4 C4.3,11.1 4.1,10.9 3.8,10.9 L1.9,10.9 C1.8,10.9 1.8,10.8 1.8,10.8 L1.8,1.4 C1.8,1.3 1.9,1.3 1.9,1.3 L14.9,1.3 C15,1.3 15,1.4 15,1.4 L15,10.9 L14.9,10.9 Z" id="Shape" fill-rule="nonzero"></path>
                                    <path d="M8,8 L9.072,8 L9.072,9 L8,9 L8,8 Z M8.04,3.288 L9.04,3.288 L9.04,4.936 L8.776,7.408 L8.304,7.408 L8.04,4.936 L8.04,3.288 Z" id="!" opacity="0.900000036"></path>
                                </g>
                            </g>
                        </g>
                    </g>
                </g>
            </g>
        </g>
    </g>
</svg>