<?xml version="1.0" encoding="UTF-8" standalone="no"?>
<svg width="9px" height="26px" viewBox="0 0 9 26" version="1.1" xmlns="http://www.w3.org/2000/svg" xmlns:xlink="http://www.w3.org/1999/xlink">
    <!-- Generator: Sketch 42 (36781) - http://www.bohemiancoding.com/sketch -->
    <title>Group 21</title>
    <desc>Created with Sketch.</desc>
    <defs></defs>
    <g id="Page-1" stroke="none" stroke-width="1" fill="none" fill-rule="evenodd" stroke-linecap="round" stroke-linejoin="round">
        <g id="UI9.-Карточка-товара---альтернатива" transform="translate(-1201.000000, -640.000000)" stroke="#FFFFFF" stroke-width="2">
            <g id="FORM" transform="translate(903.000000, 624.000000)">
                <g id="Group-21" transform="translate(299.000000, 17.000000)">
                    <polyline id="Path-3" points="0 11.3991501 5.87077781 5.52837229 0.342405526 0"></polyline>
                    <polyline id="Path-3-Copy" transform="translate(3.935389, 18.299575) scale(-1, 1) translate(-3.935389, -18.299575) " points="1 23.9991501 6.87077781 18.1283723 1.34240553 12.6"></polyline>
                </g>
            </g>
        </g>
    </g>
</svg>