<?xml version="1.0" encoding="UTF-8"?>
<svg width="19px" height="13px" viewBox="0 0 19 13" version="1.1" xmlns="http://www.w3.org/2000/svg" xmlns:xlink="http://www.w3.org/1999/xlink">
    <defs>
        <polyline id="path-1" points="0 5.23350423 4.09188306 9.83430764 12 0"></polyline>
        <polyline id="path-2" points="5 5.23350423 9.09188306 9.83430764 17 0"></polyline>
    </defs>
    <g id="Page-1" stroke="none" stroke-width="1" fill="none" fill-rule="evenodd">
        <g id="UI14.2-------Дизайн-подсказок-по-ховеру" transform="translate(-572.000000, -5841.000000)">
            <g id="Group-15-Copy-6" transform="translate(280.000000, 5436.000000)">
                <g id="Group-16">
                    <g id="button-copy-2" transform="translate(293.000000, 402.000000)">
                        <g id="Group-10">
                            <g id="Group-5">
                                <g id="Group-30" transform="translate(0.000000, 4.000000)">
                                    <g id="Path-2-Copy-2">
                                        <use xlink:href="#path-1"></use>
                                        <use stroke="#4DC97B" stroke-width="2" xlink:href="#path-1"></use>
                                    </g>
                                    <g id="Path-2-Copy">
                                        <use xlink:href="#path-2"></use>
                                        <use stroke="#4DC97B" stroke-width="2" xlink:href="#path-2"></use>
                                    </g>
                                </g>
                            </g>
                        </g>
                    </g>
                </g>
            </g>
        </g>
    </g>
</svg>