<?xml version="1.0" encoding="UTF-8" standalone="no"?>
<svg width="24px" height="30px" viewBox="0 0 24 30" version="1.1" xmlns="http://www.w3.org/2000/svg" xmlns:xlink="http://www.w3.org/1999/xlink">
    <!-- Generator: Sketch 42 (36781) - http://www.bohemiancoding.com/sketch -->
    <title>Group 2</title>
    <desc>Created with Sketch.</desc>
    <defs></defs>
    <g id="Page-1" stroke="none" stroke-width="1" fill="none" fill-rule="evenodd" stroke-linecap="round" stroke-linejoin="round">
        <g id="UI18.2.-Блог" transform="translate(-1356.000000, -29.000000)" stroke="#A0A0A0">
            <g id="MENU" transform="translate(1.000000, 0.000000)">
                <g id="Group-3" transform="translate(972.000000, 20.000000)">
                    <g id="Group-24" transform="translate(374.000000, 0.000000)">
                        <g id="ava">
                            <g id="Group">
                                <g id="Group-2" transform="translate(9.000000, 10.000000)">
                                    <path d="M14.7775,16.1 L16.5025,16.1 C19.8375,16.1 22.54,18.8025 22.54,22.1375 L22.54,26.45" id="Shape"></path>
                                    <path d="M0.5175,26.5075 L0.5175,22.195 C0.5175,18.86 3.22,16.1575 6.555,16.1575 L8.28,16.1575" id="Shape"></path>
                                    <path d="M14.5475,15.295 C14.72,15.6975 14.835,16.1 14.835,16.56 C14.835,18.3425 13.3975,19.78 11.615,19.78 C9.8325,19.78 8.395,18.3425 8.395,16.56 C8.395,16.1575 8.4525,15.6975 8.625,15.3525" id="Shape"></path>
                                    <path d="M17.135,8.6825 C17.135,12.075 15.0075,16.3875 11.615,16.3875 C8.2225,16.3875 6.095,12.075 6.095,8.6825 C6.095,5.29 6.3825,0.345 11.615,0.345 C16.79,0.345 17.135,5.29 17.135,8.6825 Z" id="Shape"></path>
                                    <path d="M4.4275,28.52 L4.4275,24.265" id="Shape"></path>
                                    <path d="M18.6875,28.52 L18.6875,24.265" id="Shape"></path>
                                </g>
                            </g>
                        </g>
                    </g>
                </g>
            </g>
        </g>
    </g>
</svg>