<?xml version="1.0" encoding="iso-8859-1"?>
<svg version="1.1" width="22px" height="21px" viewBox="0 0 22 21" xmlns="http://www.w3.org/2000/svg"
     xmlns:xlink="http://www.w3.org/1999/xlink">
    <g id="Page-1" stroke="none" stroke-width="1" fill="none" fill-rule="evenodd" stroke-linecap="round">
        <g id="UI1.6.2-Модал-категориии" transform="translate(-373.000000, -25.000000)" stroke="#3C3D3E" stroke-width="2">
            <g id="Group-4">
                <g id="close---icon---grey" transform="translate(374.000000, 26.000000)">
                    <path d="M0.318645628,18.83413 L19.9895953,0.203126916" id="Line"></path>
                    <path d="M0.318645628,18.83413 L19.9895953,0.203126916" id="Line-Copy-2"
                          transform="translate(10.154120, 9.518628) scale(-1, 1) translate(-10.154120, -9.518628) "></path>
                </g>
            </g>
        </g>
    </g>
</svg>
